<svg xmlns="http://www.w3.org/2000/svg" width="80.1" height="80.1" viewBox="0 0 80.1 80.1">
  <g id="round-cloud_download-24px" transform="translate(13.529 4)">
    <path id="Trazado_1" data-name="Trazado 1" d="M0,0H80.1V80.1H0Z" transform="translate(-13.529 -4)" fill="none"/>
    <path id="Trazado_2" data-name="Trazado 2" d="M42.353,17.22A16.4,16.4,0,0,0,11.71,12.843a13.127,13.127,0,0,0,1.423,26.178H41.587a10.913,10.913,0,0,0,.766-21.8ZM37.21,23.7,27.032,33.877a1.084,1.084,0,0,1-1.554,0L15.322,23.7h6.566V14.944h8.755V23.7Z" transform="translate(0.471 15)" fill="#76b600"/>
  </g>
</svg>
