<svg xmlns="http://www.w3.org/2000/svg" width="102.251" height="40" viewBox="0 0 102.251 40">
  <g id="Grupo_9" data-name="Grupo 9" transform="translate(-22.687 -401.605)">
    <path id="Trazado_20" data-name="Trazado 20" d="M-2560.875,107a3.476,3.476,0,0,1-1.513-.372,3.594,3.594,0,0,1-.615-.372l-10.755-11.085a5.809,5.809,0,0,1-.773-1.376,6.313,6.313,0,0,1-.411-1.544,5.944,5.944,0,0,1,.065-1.957,5.031,5.031,0,0,1,.718-1.77,5.025,5.025,0,0,1,1.023-1.134,4.8,4.8,0,0,1,1.313-.781l2.079-.621a6.048,6.048,0,0,0,.7-.206,7.55,7.55,0,0,0,1.546-.75,5.305,5.305,0,0,0,1.563-1.495,4.489,4.489,0,0,0,.75-2.439,5,5,0,0,0-.556-2.376,4.772,4.772,0,0,0-1.5-1.749,5.784,5.784,0,0,0-1.244-.644,7.749,7.749,0,0,0-1.186-.341,7.622,7.622,0,0,0-1.237-.157h-7.269v25.756l-6.408,1.168V69.683h14.03s.049,0,.139,0a12.382,12.382,0,0,1,4.551,1.009,13.592,13.592,0,0,1,2.826,1.62,9.294,9.294,0,0,1,2.238,2.282,12.278,12.278,0,0,1,1.446,3.17,12.413,12.413,0,0,1,.5,3.347,12.066,12.066,0,0,1-.409,3.287,11.107,11.107,0,0,1-1.292,2.992,8.025,8.025,0,0,1-2.186,2.264,12.493,12.493,0,0,1-2.569,1.384,15.256,15.256,0,0,1-3.032.881l9.7,9.673a3.952,3.952,0,0,1,.76,1.368,2.9,2.9,0,0,1,.095,1.4,3.2,3.2,0,0,1-.855,1.6A3,3,0,0,1-2560.875,107Zm-59.221-.335h-.061a3.615,3.615,0,0,1-1.919-.5,2.77,2.77,0,0,1-.976-1.072,3.66,3.66,0,0,1-.4-1.547V75.229l9.219-1.275,8.5,14.567,8.191-17.109a6.178,6.178,0,0,1,1.1-1.516,5.3,5.3,0,0,1,1.417-1.042,4.528,4.528,0,0,1,2.03-.474,5.214,5.214,0,0,1,.88.077,5.076,5.076,0,0,1,2.237.942,4.956,4.956,0,0,1,1.273,1.446,5.616,5.616,0,0,1,.7,1.906v30.121l-6.539,1.03V78.728l-10.959,22.639-11.54-19.187v21.362a3.524,3.524,0,0,1-.089.789,3.507,3.507,0,0,1-.25.738,2.776,2.776,0,0,1-.51.745A3.081,3.081,0,0,1-2620.1,106.665Zm-21.155-2.482h0a18.867,18.867,0,0,1-5.595-.843,18.435,18.435,0,0,1-5.014-2.434,18.107,18.107,0,0,1-3.017-2.639,20.888,20.888,0,0,1-2.323-3.05,20.4,20.4,0,0,1-1.6-3.106,14.708,14.708,0,0,1-.856-2.806,19.247,19.247,0,0,1-.168-6.111,19.187,19.187,0,0,1,.875-3.676,21.311,21.311,0,0,1,1.847-3.952,17.254,17.254,0,0,1,5.483-5.732,17.278,17.278,0,0,1,2.686-1.415,17.243,17.243,0,0,1,2.166-.743,19.385,19.385,0,0,1,2.5-.507A19.16,19.16,0,0,1-2641.7,67a26.738,26.738,0,0,1,4.472.412,12.561,12.561,0,0,1,4.5,1.751,18.019,18.019,0,0,1,3.384,2.749,22.453,22.453,0,0,1,2.129,2.537c.477.664.737,1.11.74,1.115l-6.808,1.019a7.246,7.246,0,0,0-.959-.984,8.513,8.513,0,0,0-1.143-.836,7.469,7.469,0,0,0-1.537-.715,11.728,11.728,0,0,0-1.925-.434,16.441,16.441,0,0,0-2.373-.171,14.154,14.154,0,0,0-2.9.283,8.658,8.658,0,0,0-2.62.969,16.328,16.328,0,0,0-2.291,1.632,14.175,14.175,0,0,0-2.2,2.342,11.38,11.38,0,0,0-1.628,3.062,10.565,10.565,0,0,0-.562,3.79,14.769,14.769,0,0,0,.592,3.793,11.335,11.335,0,0,0,1.467,3.1,11.4,11.4,0,0,0,2.278,2.454,14.818,14.818,0,0,0,3.027,1.861,12.381,12.381,0,0,0,4.9.879,15.049,15.049,0,0,0,2.07-.139,10.57,10.57,0,0,0,1.9-.432,11.283,11.283,0,0,0,2.129-.977,12.129,12.129,0,0,0,1.568-1.1,9.769,9.769,0,0,0,1.3-1.273l.414-.439a2.776,2.776,0,0,1,.509-.3,3.126,3.126,0,0,1,1.313-.3,3.3,3.3,0,0,1,2.256.979,3.185,3.185,0,0,1,.952,1.521,3.2,3.2,0,0,1,.033,1.438,4.361,4.361,0,0,1-.6,1.491,14.064,14.064,0,0,1-2.181,2.092,18.378,18.378,0,0,1-2.7,1.773,18.327,18.327,0,0,1-3.744,1.51A19.742,19.742,0,0,1-2641.252,104.183Z" transform="translate(2682.684 334.605)" fill="#3f7730"/>
  </g>
</svg>
